<svg width="51" height="41" viewBox="0 0 51 41" fill="none" xmlns="http://www.w3.org/2000/svg">
<g clip-path="url(#clip0_683_21652)">
<path d="M25.5884 26.5609L29.6601 17.2916L35.0329 5.81627C36.4748 2.60586 39.3993 -0.0510631 42.6716 -0.000259883C48.3365 0.0897599 51.169 5.43747 50.9919 9.89389C50.9716 10.4073 50.9919 11.4982 50.3723 13.1025L38.2291 38.9088L38.2043 38.907C37.529 40.1539 36.2154 40.9997 34.7054 40.9997C32.9678 40.9997 31.6959 39.9302 30.9471 38.3161L25.5884 26.5609Z" fill="#0ABEBA"/>
<path d="M25.4114 26.5609L21.3397 17.2916L15.9669 5.81627C14.525 2.60586 11.6014 -0.0510631 8.32817 -0.000259883C2.66327 0.0888686 -0.169176 5.43658 0.00785255 9.893C0.0282097 10.4064 0.00785255 11.4973 0.627451 13.1016L12.7707 38.9079L12.7955 38.9061C13.4708 40.153 14.7844 40.9988 16.2944 40.9988C18.032 40.9988 19.3039 39.9293 20.0527 38.3152L25.4114 26.56V26.5609Z" fill="#0ABEBA"/>
<path d="M25.4557 26.5615L20.0085 38.2703C19.2597 39.8844 17.9877 40.954 16.2502 40.954C14.7401 40.954 13.4266 40.1081 12.7512 38.8612L12.7265 38.863L5.84715 24.2441H5.87547L3.10498 18.3171C12.2219 31.3299 16.8247 7.08691 25.4105 7.08691C33.2245 7.08691 38.6876 31.0625 47.8931 18.3171L43.2903 28.0321L43.2788 28.0357L38.184 38.863L38.1592 38.8612C37.4838 40.1081 36.1703 40.954 34.6602 40.954C32.9227 40.954 31.6507 39.8844 30.9019 38.2703L25.4548 26.5615H25.4557Z" fill="#0ABEBA"/>
</g>
<defs>
<clipPath id="clip0_683_21652">
<rect width="51" height="41" fill="white" transform="matrix(-1 0 0 1 51 0)"/>
</clipPath>
</defs>
</svg>
