<svg width="14" height="320" viewBox="0 0 14 320" fill="none" xmlns="http://www.w3.org/2000/svg">
<path fill-rule="evenodd" clip-rule="evenodd" d="M0 4C0 1.79086 1.79086 0 4 0H10C12.2091 0 14 1.79086 14 4V320H0V4Z" fill="#0ABEBA"/>
</svg>
