<svg width="24" height="24" viewBox="0 0 24 24" fill="none" xmlns="http://www.w3.org/2000/svg">
<path d="M12.4999 7.20018C10.4606 7.20018 8.8049 8.85586 8.8049 10.8952C8.8049 12.9345 10.4606 14.5902 12.4999 14.5902C14.5392 14.5902 16.1949 12.9345 16.1949 10.8952C16.1949 8.85586 14.5392 7.20018 12.4999 7.20018Z" fill="#72787F"/>
<path d="M12.4999 15.5493C9.91542 15.5493 7.72466 17.2554 6.99778 19.6077C8.52222 20.7889 10.4303 21.4956 12.4999 21.4956C14.5695 21.4956 16.4776 20.7889 18.002 19.6077C17.2751 17.2554 15.0844 15.5493 12.4999 15.5493Z" fill="#72787F"/>
<path d="M12.4999 22.0004C7.26026 22.0004 2.9999 17.74 2.9999 12.5004C2.9999 7.26075 7.26026 3.00039 12.4999 3.00039C17.7395 3.00039 21.9999 7.26075 21.9999 12.5004C21.9999 17.74 17.7395 22.0004 12.4999 22.0004ZM12.4999 4.00995C7.81552 4.00995 4.00947 7.81601 4.00947 12.5004C4.00947 17.1848 7.81552 20.9908 12.4999 20.9908C17.1843 20.9908 20.9903 17.1848 20.9903 12.5004C20.9903 7.81601 17.1843 4.00995 12.4999 4.00995Z" fill="#72787F"/>
<path fill-rule="evenodd" clip-rule="evenodd" d="M12.4999 3.35039C7.45356 3.35039 3.3499 7.45405 3.3499 12.5004C3.3499 15.3256 4.63614 17.8554 6.65394 19.5349L6.66338 19.5044C6.69298 19.4086 6.72487 19.3138 6.75899 19.2201C4.8626 17.5979 3.65947 15.188 3.65947 12.5004C3.65947 7.62271 7.62222 3.65995 12.4999 3.65995C17.3776 3.65995 21.3403 7.62271 21.3403 12.5004C21.3403 15.188 20.1372 17.5979 18.2408 19.2201C18.2749 19.3138 18.3068 19.4086 18.3364 19.5044L18.3459 19.5349C20.3637 17.8554 21.6499 15.3256 21.6499 12.5004C21.6499 7.45405 17.5462 3.35039 12.4999 3.35039ZM17.948 18.5457C19.6005 17.0551 20.6403 14.8977 20.6403 12.5004C20.6403 8.00931 16.991 4.35995 12.4999 4.35995C8.00882 4.35995 4.35947 8.00931 4.35947 12.5004C4.35947 14.8977 5.39926 17.0551 7.05184 18.5457C8.06126 16.5591 10.1232 15.1993 12.4999 15.1993C14.8766 15.1993 16.9385 16.5591 17.948 18.5457ZM7.6068 19.0037C8.4733 17.1675 10.3408 15.8993 12.4999 15.8993C14.659 15.8993 16.5265 17.1675 17.393 19.0037C16.0304 20.0312 14.3354 20.6408 12.4999 20.6408C10.6644 20.6408 8.96945 20.0312 7.6068 19.0037ZM2.6499 12.5004C2.6499 7.06745 7.06696 2.65039 12.4999 2.65039C17.9328 2.65039 22.3499 7.06745 22.3499 12.5004C22.3499 17.9333 17.9328 22.3504 12.4999 22.3504C7.06696 22.3504 2.6499 17.9333 2.6499 12.5004ZM8.4549 10.8952C8.4549 8.66256 10.2673 6.85018 12.4999 6.85018C14.7325 6.85018 16.5449 8.66256 16.5449 10.8952C16.5449 13.1278 14.7325 14.9402 12.4999 14.9402C10.2673 14.9402 8.4549 13.1278 8.4549 10.8952ZM12.4999 7.55018C10.6539 7.55018 9.1549 9.04916 9.1549 10.8952C9.1549 12.7412 10.6539 14.2402 12.4999 14.2402C14.3459 14.2402 15.8449 12.7412 15.8449 10.8952C15.8449 9.04916 14.3459 7.55018 12.4999 7.55018Z" fill="#72787F"/>
</svg>
